{

  "docker": {
    "docker_repo": "/root/docker-image/docker",
    "install_image_dir": "/vagrant_data"
  },

  "run_list" : [
    "recipe[docker-for-oel70::docker_build]",
    "recipe[docker-for-oel70::wls-admin-container]"
  ]
}
